exercise-05/lfsr_equiv/engine_0/trace_induct.vcd
$version Generated by Yosys-SMTBMC $end
$timescale 1ns $end
$var integer 32 t smt_step $end
$var event 1 ! smt_clock $end
$scope module lfsr_equiv $end
$scope module fib $end
$var wire 1 n0 i_ce $end
$var wire 1 n1 i_clk $end
$var wire 1 n2 i_in $end
$var wire 1 n3 i_reset $end
$var wire 1 n4 o_bit $end
$var wire 8 n5 sreg $end
$upscope $end
$var wire 1 n6 fib_bit $end
$scope module gal $end
$var wire 1 n7 i_ce $end
$var wire 1 n8 i_clk $end
$var wire 1 n9 i_in $end
$var wire 1 n10 i_reset $end
$var wire 1 n11 o_bit $end
$var wire 8 n12 sreg $end
$upscope $end
$var wire 1 n13 gal_bit $end
$var wire 1 n14 i_ce $end
$var wire 1 n15 i_clk $end
$var wire 1 n16 i_in $end
$var wire 1 n17 i_reset $end
$var wire 1 n18 o_bit $end
$upscope $end
$enddefinitions $end
#0
1!
b00000000000000000000000000000000 t
b1 n1
b1 n8
b1 n15
b0 n0
b0 n2
b0 n3
b0 n4
b00000000 n5
b0 n6
b0 n7
b0 n9
b0 n10
b0 n11
b00000010 n12
b0 n13
b0 n14
b0 n16
b0 n17
b0 n18
#5
b0 n1
b0 n8
b0 n15
#10
1!
b00000000000000000000000000000001 t
b1 n1
b1 n8
b1 n15
b0 n0
b0 n2
b0 n3
b0 n4
b00000000 n5
b0 n6
b0 n7
b0 n9
b0 n10
b0 n11
b00000010 n12
b0 n13
b0 n14
b0 n16
b0 n17
b0 n18
#15
b0 n1
b0 n8
b0 n15
#20
1!
b00000000000000000000000000000010 t
b1 n1
b1 n8
b1 n15
b0 n0
b0 n2
b0 n3
b0 n4
b00000000 n5
b0 n6
b0 n7
b0 n9
b0 n10
b0 n11
b00000010 n12
b0 n13
b0 n14
b0 n16
b0 n17
b0 n18
#25
b0 n1
b0 n8
b0 n15
#30
1!
b00000000000000000000000000000011 t
b1 n1
b1 n8
b1 n15
b0 n0
b0 n2
b0 n3
b0 n4
b00000000 n5
b0 n6
b0 n7
b0 n9
b0 n10
b0 n11
b00000010 n12
b0 n13
b0 n14
b0 n16
b0 n17
b0 n18
#35
b0 n1
b0 n8
b0 n15
#40
1!
b00000000000000000000000000000100 t
b1 n1
b1 n8
b1 n15
b0 n0
b0 n2
b0 n3
b0 n4
b00000000 n5
b0 n6
b0 n7
b0 n9
b0 n10
b0 n11
b00000010 n12
b0 n13
b0 n14
b0 n16
b0 n17
b0 n18
#45
b0 n1
b0 n8
b0 n15
#50
1!
b00000000000000000000000000000101 t
b1 n1
b1 n8
b1 n15
b0 n0
b0 n2
b0 n3
b0 n4
b00000000 n5
b0 n6
b0 n7
b0 n9
b0 n10
b0 n11
b00000010 n12
b0 n13
b0 n14
b0 n16
b0 n17
b0 n18
#55
b0 n1
b0 n8
b0 n15
#60
1!
b00000000000000000000000000000110 t
b1 n1
b1 n8
b1 n15
b0 n0
b0 n2
b0 n3
b0 n4
b00000000 n5
b0 n6
b0 n7
b0 n9
b0 n10
b0 n11
b00000010 n12
b0 n13
b0 n14
b0 n16
b0 n17
b0 n18
#65
b0 n1
b0 n8
b0 n15
#70
1!
b00000000000000000000000000000111 t
b1 n1
b1 n8
b1 n15
b0 n0
b0 n2
b0 n3
b0 n4
b00000000 n5
b0 n6
b0 n7
b0 n9
b0 n10
b0 n11
b00000010 n12
b0 n13
b0 n14
b0 n16
b0 n17
b0 n18
#75
b0 n1
b0 n8
b0 n15
#80
1!
b00000000000000000000000000001000 t
b1 n1
b1 n8
b1 n15
b0 n0
b0 n2
b0 n3
b0 n4
b00000000 n5
b0 n6
b0 n7
b0 n9
b0 n10
b0 n11
b00000010 n12
b0 n13
b0 n14
b0 n16
b0 n17
b0 n18
#85
b0 n1
b0 n8
b0 n15
#90
1!
b00000000000000000000000000001001 t
b1 n1
b1 n8
b1 n15
b0 n0
b0 n2
b0 n3
b0 n4
b00000000 n5
b0 n6
b0 n7
b0 n9
b0 n10
b0 n11
b00000010 n12
b0 n13
b0 n14
b0 n16
b0 n17
b0 n18
#95
b0 n1
b0 n8
b0 n15
#100
1!
b00000000000000000000000000001010 t
b1 n1
b1 n8
b1 n15
b0 n0
b0 n2
b0 n3
b0 n4
b00000000 n5
b0 n6
b0 n7
b0 n9
b0 n10
b0 n11
b00000010 n12
b0 n13
b0 n14
b0 n16
b0 n17
b0 n18
#105
b0 n1
b0 n8
b0 n15
#110
1!
b00000000000000000000000000001011 t
b1 n1
b1 n8
b1 n15
b1 n0
b0 n2
b0 n3
b0 n4
b00000000 n5
b0 n6
b1 n7
b0 n9
b0 n10
b0 n11
b00000010 n12
b0 n13
b1 n14
b0 n16
b0 n17
b0 n18
#115
b0 n1
b0 n8
b0 n15
#120
1!
b00000000000000000000000000001100 t
b1 n1
b1 n8
b1 n15
b0 n0
b0 n2
b0 n3
b0 n4
b00000000 n5
b0 n6
b0 n7
b0 n9
b0 n10
b1 n11
b00000001 n12
b1 n13
b0 n14
b0 n16
b0 n17
b1 n18
#125
b0 n1
b0 n8
b0 n15
#130
1!
b00000000000000000000000000001101 t
b1 n1
b1 n8
b1 n15
